/***********************************************************************
* $Id$		abstract.txt		2012-02-15		
* @file		SSP\Ssp_Master\abstract.txt 
* @brief	Description of the SSP DMA example.
* @version	1.0
* @date		15. February 2012
* @author	NXP MCU SW Application Team
* 
* Copyright(C) 2011, NXP Semiconductor
* All rights reserved.
*
***********************************************************************
* Software that is described herein is for illustrative purposes only
* which provides customers with programming information regarding the
* products. This software is supplied "AS IS" without any warranties.
* NXP Semiconductors assumes no responsibility or liability for the
* use of the software, conveys no license or title under any patent,
* copyright, or mask work right to the product. NXP Semiconductors
* reserves the right to make changes in the software without
* notification. NXP Semiconductors also make no representation or
* warranty that such application will be suitable for the specified
* use without further testing or modification.
**********************************************************************/
  
@Example description:
	Purpose:
		This example describes how to use SSP peripheral as a SSP Master.
	Process:
		SSP configuration:
			- CPHA = 0: data is sampled on the first clock edge of SCK.
			- CPOL = 0: SCK is active high
			- Clock rate = 1MHz
			- DSS = 8: 8 bits per transfer
			- MSTR = 1: SSP operates in Master mode
			- FRF= 0: SPI Frame format
		This example uses SSP function in MASTER mode.
		Using _SSP_NO_USING to define which SSP peripheral will be used.
		Using __DMA_USED__ to define if DMA will be used.
		A number of bytes are transmitted between Master and Slave. 
		After transmission completed, two buffers will be compared, if they are not similar,
		the program will enter infinite loop and print error notice to serial display.

@Directory contents:
	\Keil:	includes RVMDK (Keil)project and configuration files
	\EWARM: includes EWARM (IAR) project and configuration files
	 
	Ssp_Master.c: Main program

@How to run:
	Hardware configuration:		
		TThis example was tested on:
			1. LPC1788 OEM Board rev A and OEM Base Board rev A
			2. LPC1788 IAR Start Kit Rev.B
				- 3.3VA_E	:ON
				- VREG		:ON
				- IO_E		:ON
				- PWR_SEL	:depends on power source selection
		(Choose correct working board by setting "_CURR_USING_BRD" marco in .\BoardSupport\bsp.h file)
		
		SSP Connection:			
			Pin Map:
										PA brd				IAR brd
			- P0.15: SSP0_SCK			J5.19
			- P0.16: SSP0_SSEL			J3.24 
	  		- P0.17: SSP0_MISO			J5.20   
	  		- P0.18: SSP0_MOSI			J3.23    

	  		- P0.7:  SSP1_SCK			J5.17				EXT-7    
	  		- P0.6 : SSP1_SSEL			J3.18				EXT-6   
			- P0.8: SSP1_MISO			J3.19				EXT-8
			- P0.9: SSP1_MOSI			J5.18				EXT-9

			- P1.0:  SSP2_SCK			    
			- P1.8 : SSP2_SSEL			 
			- P1.4: SSP2_MISO							
			- P1.1: SSP2_MOSI			

			SCK, SSEL, MISO and MOSI pin of master are connected to the coressponding pins of slave.
			GND of 2 boards must be connected together.
            			
		Serial display configuration: (e.g: TeraTerm, Hyperterminal, Flash Magic...) 
			1. LPC1788 OEM Board rev A and OEM Base Board rev A
				- UART0: USB serial port
					+ All jumpers: Default
				- UART1: 
					+ P0.15 (@ J5.19) - JP12.2
					+ P0.16 (@ J3.24) - JP13.2
				- UART2:
					+ JP6: 	1-2: OFF
							3-4: OFF
							5-6: ON
					+ JP12: 1-2
					+ JP13: 1-2
					+ Other jumpers: Default
				- UART3:
					+ P0.2 (@J5.13) - JP12.2
					+ P0.3 (@J5.14) - JP13.2
				- UART4:
					+ P0.22 (@J3.25) - JP12.2
					+ P2.9  (@J3.15) - JP13.2
	    	2. LPC1788 IAR Start Kit Rev.B
				- UART0: 
					All jumpers: optional
			Note: Pls sure that "USED_UART_DEBUG_PORT" macro in debug_frmwrk.h is set correctly
			
			Setting:
				+ 115200bps 
				+ 8 data bit 
				+ No parity 
				+ 1 stop bit 
				+ No flow control 
	
	Running mode:
		This example can run on RAM/ROM mode.
					
		Note: If want to burn hex file to board by using Flash Magic, these jumpers need
			to be connected:
			1. LPC1788 OEM Board rev A and OEM Base Board rev A
				- JP20: 1-2: ON
						3-4: ON
			(Using UART0 on USB serial port
			Sure that you choose correct COM port number - Pls reference at:
			"Device Manager" -> "Ports(COM & LPT)" -> "USB Serial Port (COMx)")
		    
		    2. LPC1788 IAR Start Kit Rev.B
				- RST_E: ON
				- ISP_E: ON
	
	Step to run:
		- Step 1: Choose the SSP component by #define _SSP_NO_USING
		- Step 2: Build example.
		- Step 3: Burn hex file into master board (if run on ROM mode)
		- Step 4: Connect UART0\1\2 on this board to COM port on your computer
		- Step 5: Configure hardware and serial display as above instruction 
        - Step 6: Reset Slave board.
		- Step 6: Reset Master board, press 1 and observe SSP transfer result on serial display
